<?xml version="1.0" encoding="utf-8" ?>
<root>
<channel id="300163" cl="164" rcl="8" nm="江苏卫视" vip="0" pb="" vtp="0" tbcid="79" tbct="电视台" bcid="79" bct="电视台" ctype="livetv" rid="238baa4ac12f427896cecf12234159ef" timestamp="20170213094335" vt="4" rt="0" bt="-1" ex="0" dd="1" rsid="0" sv="0" dur="0" lk="http://v.pptv.com/show/g1W0MpoAcK5t61M.html" pic="" fd="0" fdn="0" pt="0" sid="" ffb="" nl="0" olt="0" ts="1520220847" sub="0" mv="0" pno="" sectionId="0" sectionTitle="" outLinkPay="0" sectionCp="1" outLink="" icon="0">
<stream  delay="45" interval="5" jump="1800" cft="0"><item rid="93febe2b4ea143789ae3b905ac8c320a" bitrate="232" width="640" height="360" ft="0" syncid="5633" vip="0" protocol="live2" format="h264" /></stream></channel>
<logo align="righttop" ax="0.0156" ay="0.0277" width="0.13">

<url ext="png">http://static9.pplive.cn/logo/pp_mark_1509004260.png</url>

<url ext="swf">http://static9.pplive.cn/logo/pp_mark_1509004260.swf</url>

</logo><dt ft="0">
<sh limit="0|2000">114.80.186.140:80</sh>
<st>Mon Mar 05 03:34:07 2018 UTC</st>
<bwt>0</bwt>
<key expire="Mon Mar 05 15:34:07 2018 UTC">ee92e8f524a7c5a9d56abf9df8a5c9fb-f033-1520264047%26bppcataid%3D79</key>
<bh limit="0|2000">202.102.68.130:80</bh>
<flag>15</flag>
<iv>84f674a6b0d2975db4cf4658e9c61480</iv>
</dt><bc>
<bwt>0</bwt>
<ft>0</ft>
</bc><itemList><item id="109" intValue="0" itemValue="0">0</item><item id="172" intValue="0" itemValue=""></item><item id="204" intValue="0" itemValue="0">0</item><item id="129" intValue="1" itemValue=""></item><item id="214" intValue="0" itemValue="delay,45;interval,5">delay,45;interval,5</item><item id="205" intValue="0" itemValue="0,0">0,0</item><item id="227" intValue="0" itemValue="-1">-1</item><item id="213" intValue="0" itemValue=""></item></itemList><img  r="10" c="10" h="720"></img><uh>180.169.149.178</uh></root>
